GVPT622 - Predicting outcomes
…
here::here("content", "data", "1976-2020-president.csv")

[1] "/Users/harrietgoers/Documents/GVPT622/content/data/1976-2020-president.csv"

Now, if I sent you this RProject folder and you were to run this script, here::here() would change part of the file path unique to my computer (/Users/harrietgoers/Documents/) to reflect where you have stored this RProject on your computer. No more annoying errors! Yay!

So, we are going to use this more robust file referencing process to tell read_csv() where our data are located:

Tip

Make sure to adjust your breadcrumbs to reflect your own folder structure.

read_csv(here::here("content", "data", "1976-2020-president.csv"))

# A tibble: 4,287 × 15
    year state   state_po state_fips state_cen state_ic office       candidate  
   <dbl> <chr>   <chr>         <dbl>     <dbl>    <dbl> <chr>        <chr>      
 1  1976 ALABAMA AL                1        63       41 US PRESIDENT "CARTER, J…
 2  1976 ALABAMA AL                1        63       41 US PRESIDENT "FORD, GER…
 3  1976 ALABAMA AL                1        63       41 US PRESIDENT "MADDOX, L…
 4  1976 ALABAMA AL                1        63       41 US PRESIDENT "BUBAR, BE…
 5  1976 ALABAMA AL                1        63       41 US PRESIDENT "HALL, GUS"
 6  1976 ALABAMA AL                1        63       41 US PRESIDENT "MACBRIDE,…
 7  1976 ALABAMA AL                1        63       41 US PRESIDENT  <NA>      
 8  1976 ALASKA  AK                2        94       81 US PRESIDENT "FORD, GER…
 9  1976 ALASKA  AK                2        94       81 US PRESIDENT "CARTER, J…
10  1976 ALASKA  AK                2        94       81 US PRESIDENT "MACBRIDE,…
# ℹ 4,277 more rows
# ℹ 7 more variables: party_detailed <chr>, writein <lgl>,
#   candidatevotes <dbl>, totalvotes <dbl>, version <dbl>, notes <lgl>,
#   party_simplified <chr>
Brilliant! You just read into R your first file. But how do we use it?

Objects

When we read a data set into our current R session, we want to assign it as an object. We can then use and modify this object as we like.

I am going to assign this data set to an object named prev_state_lvl_results:

prev_state_lvl_results <- read_csv(here::here("content", "data", "1976-2020-president.csv"))

This means that I can now use the data set by simply running:

prev_state_lvl_results

# A tibble: 4,287 × 15
    year state   state_po state_fips state_cen state_ic office       candidate  
   <dbl> <chr>   <chr>         <dbl>     <dbl>    <dbl> <chr>        <chr>      
 1  1976 ALABAMA AL                1        63       41 US PRESIDENT "CARTER, J…
 2  1976 ALABAMA AL                1        63       41 US PRESIDENT "FORD, GER…
 3  1976 ALABAMA AL                1        63       41 US PRESIDENT "MADDOX, L…
 4  1976 ALABAMA AL                1        63       41 US PRESIDENT "BUBAR, BE…
 5  1976 ALABAMA AL                1        63       41 US PRESIDENT "HALL, GUS"
 6  1976 ALABAMA AL                1        63       41 US PRESIDENT "MACBRIDE,…
 7  1976 ALABAMA AL                1        63       41 US PRESIDENT  <NA>      
 8  1976 ALASKA  AK                2        94       81 US PRESIDENT "FORD, GER…
 9  1976 ALASKA  AK                2        94       81 US PRESIDENT "CARTER, J…
10  1976 ALASKA  AK                2        94       81 US PRESIDENT "MACBRIDE,…
# ℹ 4,277 more rows
# ℹ 7 more variables: party_detailed <chr>, writein <lgl>,
#   candidatevotes <dbl>, totalvotes <dbl>, version <dbl>, notes <lgl>,
#   party_simplified <chr>
…
Candidate-election year.

prev_nat_lvl_results <- prev_state_lvl_results |> 
  # Divide the dataset up by election year and candidate
  group_by(year, candidate) |> 
  # Calculate the total number of voters who voted in each of these groups
  summarise(nationalcandidatevotes = sum(candidatevotes), 
            nationaltotalvotes = sum(totalvotes)) |> 
  # Ungroup our data
  ungroup()

prev_nat_lvl_results

# A tibble: 370 × 4
    year candidate                     nationalcandidatevotes nationaltotalvotes
   <dbl> <chr>                                          <dbl>              <dbl>
 1  1976 "ANDERSON, THOMAS J."                         147835           28498006
 2  1976 "BUBAR, BENJAMIN \"\"BEN\"\""                  15888           13255917
 3  1976 "CAMEJO, PETER"                                89737           59540602
 4  1976 "CARTER, JIMMY"                             40825839           88269606
 5  1976 "FORD, GERALD"                              39145771           88269606
 6  1976 "HALL, GUS"                                    57721           43458746
 7  1976 "JULIUS \"\"JULES\"\", LEVIN"                   9229           25681673
 8  1976 "LAROUCHE, LYNDON, JR."                        39148           46223231
 9  1976 "MACBRIDE, ROGER"                             171266           55303046
10  1976 "MADDOX, LESTER"                              168623           35723586
# ℹ 360 more rows
…
As expected, the Democratic and Republican candidates received the vast majority of votes cast. What proportion of votes did they receive?

Let’s go back to our full data set:

prev_nat_lvl_results

# A tibble: 370 × 4
    year candidate                     nationalcandidatevotes nationaltotalvotes
   <dbl> <chr>                                          <dbl>              <dbl>
 1  1976 "ANDERSON, THOMAS J."                         147835           28498006
 2  1976 "BUBAR, BENJAMIN \"\"BEN\"\""                  15888           13255917
 3  1976 "CAMEJO, PETER"                                89737           59540602
 4  1976 "CARTER, JIMMY"                             40825839           88269606
 5  1976 "FORD, GERALD"                              39145771           88269606
 6  1976 "HALL, GUS"                                    57721           43458746
 7  1976 "JULIUS \"\"JULES\"\", LEVIN"                   9229           25681673
 8  1976 "LAROUCHE, LYNDON, JR."                        39148           46223231
 9  1976 "MACBRIDE, ROGER"                             171266           55303046
10  1976 "MADDOX, LESTER"                              168623           35723586
# ℹ 360 more rows
…
We can now update our national-level data to reflect the true total number of people who voted nationally:

prev_nat_lvl_results <- prev_nat_lvl_results |> 
  # Remove the inconsistent data
  select(-nationaltotalvotes) |>
  # Merge with the true national total
  left_join(national_total_votes, by = join_by(year))

prev_nat_lvl_results

# A tibble: 370 × 4
    year candidate                     nationalcandidatevotes nationaltotalvotes
   <dbl> <chr>                                          <dbl>              <dbl>
 1  1976 "ANDERSON, THOMAS J."                         147835           81601344
 2  1976 "BUBAR, BENJAMIN \"\"BEN\"\""                  15888           81601344
 3  1976 "CAMEJO, PETER"                                89737           81601344
 4  1976 "CARTER, JIMMY"                             40825839           81601344
 5  1976 "FORD, GERALD"                              39145771           81601344
 6  1976 "HALL, GUS"                                    57721           81601344
 7  1976 "JULIUS \"\"JULES\"\", LEVIN"                   9229           81601344
 8  1976 "LAROUCHE, LYNDON, JR."                        39148           81601344
 9  1976 "MACBRIDE, ROGER"                             171266           81601344
10  1976 "MADDOX, LESTER"                              168623           81601344
# ℹ 360 more rows

That looks better!

Now we have all of the information we need to calculate the proportion of US voters who voted for each candidate in each election:

prev_nat_lvl_results <- mutate(prev_nat_lvl_results, 
                               prop_votes = nationalcandidatevotes / nationaltotalvotes)

prev_nat_lvl_results

# A tibble: 370 × 5
    year candidate          nationalcandidatevotes nationaltotalvotes prop_votes
   <dbl> <chr>                               <dbl>              <dbl>      <dbl>
 1  1976 "ANDERSON, THOMAS…                 147835           81601344   0.00181 
 2  1976 "BUBAR, BENJAMIN …                  15888           81601344   0.000195
 3  1976 "CAMEJO, PETER"                     89737           81601344   0.00110 
 4  1976 "CARTER, JIMMY"                  40825839           81601344   0.500   
 5  1976 "FORD, GERALD"                   39145771           81601344   0.480   
 6  1976 "HALL, GUS"                         57721           81601344   0.000707
 7  1976 "JULIUS \"\"JULES…                   9229           81601344   0.000113
 8  1976 "LAROUCHE, LYNDON…                  39148           81601344   0.000480
 9  1976 "MACBRIDE, ROGER"                  171266           81601344   0.00210 
10  1976 "MADDOX, LESTER"                   168623           81601344   0.00207 
# ℹ 360 more rows
…
