Descriptive Statistics – GVPT622
…
For this section, we will look at how much each country spends on education as a proportion of its gross domestic product (GDP). We will use wbstats::wb_data() to collect these data.

perc_edu <- wb_data(
  "SE.XPD.TOTL.GD.ZS", start_date = 2020, end_date = 2020, return_wide = F
) |> 
  transmute(
    country, 
    region = countrycode(country, "country.name", "region"),
    year = date,
    value
  )

perc_edu

# A tibble: 217 × 4
   country             region                      year value
   <chr>               <chr>                      <dbl> <dbl>
 1 Afghanistan         South Asia                  2020 NA   
 2 Albania             Europe & Central Asia       2020  3.34
 3 Algeria             Middle East & North Africa  2020  7.04
 4 American Samoa      East Asia & Pacific         2020 NA   
 5 Andorra             Europe & Central Asia       2020  2.86
 6 Angola              Sub-Saharan Africa          2020  2.74
 7 Antigua and Barbuda Latin America & Caribbean   2020  2.99
 8 Argentina           Latin America & Caribbean   2020  5.28
 9 Armenia             Europe & Central Asia       2020  2.71
10 Aruba               Latin America & Caribbean   2020 NA   
# ℹ 207 more rows
…
max(perc_edu$value, na.rm = T) - min(perc_edu$value, na.rm = T)

[1] 9.168

The difference between the country that spends the highest proportion of its GDP on education and that which spends the least is 9.17 percentage points.

Variance

The variance measures how spread out your values are. On average, how far are your observations from the mean?

This measure can, at first, be a bit too abstract to get an immediate handle on. Let’s walk through it. Imagine we have two data sets, wide_dist and narrow_dist. Both are normally distributed, share the same mean (0), and the same number of observations (1,000,000).

wide_dist

# A tibble: 1,000,000 × 1
         x
     <dbl>
 1 -0.380 
 2 -1.04  
 3 -2.40  
 4  1.10  
 5 -0.666 
 6 -0.0237
 7  1.86  
 8  0.961 
 9  0.735 
10 -1.09  
# ℹ 999,990 more rows

narrow_dist

# A tibble: 1,000,000 × 1
         x
     <dbl>
 1  0.421 
 2  0.250 
 3 -0.717 
 4 -0.743 
 5  0.184 
 6  0.324 
 7 -0.0226
 8 -1.42  
 9 -1.01  
10 -1.90  
# ℹ 999,990 more rows
…
In R:

wide_dist_mean <- mean(wide_dist$x)

wide_var_calc <- wide_dist |> 
  mutate(
    mean = wide_dist_mean,
    diff = x - mean,
    diff_2 = diff^2
  )

wide_var_calc

# A tibble: 1,000,000 × 4
         x      mean    diff   diff_2
     <dbl>     <dbl>   <dbl>    <dbl>
 1 -0.380  -0.000106 -0.380  0.145   
 2 -1.04   -0.000106 -1.04   1.07    
 3 -2.40   -0.000106 -2.40   5.74    
 4  1.10   -0.000106  1.10   1.22    
 5 -0.666  -0.000106 -0.666  0.443   
 6 -0.0237 -0.000106 -0.0236 0.000555
 7  1.86   -0.000106  1.86   3.47    
 8  0.961  -0.000106  0.961  0.923   
 9  0.735  -0.000106  0.735  0.540   
10 -1.09   -0.000106 -1.09   1.19    
# ℹ 999,990 more rows
…
