Research Design – GVPT622
…
Note

I made these data up! These are not the data collected by Hyde (2007). I have made them extreme for illustrative purposes.

vec_cheating_party_monitoring <- round(rbeta(1763, 2, 11) * 100, 2)
vec_cheating_party_no_monitoring <- round(rbeta(1763, 6, 4) * 100, 2)

sim_election_monitoring <- tibble(station_id = 1:1763, 
                                  cheating_party_monitoring = vec_cheating_party_monitoring,
                                  cheating_party_no_monitoring = vec_cheating_party_no_monitoring)

sim_election_monitoring

# A tibble: 1,763 × 3
   station_id cheating_party_monitoring cheating_party_no_monitoring
        <int>                     <dbl>                        <dbl>
 1          1                     14.8                          50.2
 2          2                     19.1                          58.3
 3          3                     20.8                          59.6
 4          4                     10.0                          61.2
 5          5                     19.4                          82.1
 6          6                     25.9                          63.5
 7          7                     21.3                          68.0
 8          8                      8.19                         68.3
 9          9                     36.5                          68.9
10         10                      2.54                         78.1
# ℹ 1,753 more rows

We could then compare these two vote shares and determine whether the election monitors substantially drove down the cheating parties’ vote shares:

sim_election_monitoring |> 
  mutate(difference = cheating_party_monitoring - cheating_party_no_monitoring)

# A tibble: 1,763 × 4
   station_id cheating_party_monitoring cheating_party_no_monitoring difference
        <int>                     <dbl>                        <dbl>      <dbl>
 1          1                     14.8                          50.2      -35.4
 2          2                     19.1                          58.3      -39.2
 3          3                     20.8                          59.6      -38.8
 4          4                     10.0                          61.2      -51.1
 5          5                     19.4                          82.1      -62.8
 6          6                     25.9                          63.5      -37.6
 7          7                     21.3                          68.0      -46.7
 8          8                      8.19                         68.3      -60.1
 9          9                     36.5                          68.9      -32.4
10         10                      2.54                         78.1      -75.6
# ℹ 1,753 more rows
…
We cannot, of course, create parallel worlds. We only observe the factual outcome: each party’s vote share at a given station under whichever condition (monitored or not) it received in reality. We never observe the counter-factual outcome: each party’s vote share at a given station under the other condition.

In Hyde’s case, she only has the cheating party’s vote share at a given station under whichever condition it received:

vec_monitored <- rbinom(1763, 1, 0.5)

sim_factual_monitoring <- sim_election_monitoring |> 
  mutate(monitored = vec_monitored,
         cheating_party_monitoring = if_else(monitored == 1, cheating_party_monitoring, NA_real_),
         cheating_party_no_monitoring = if_else(monitored == 0, cheating_party_no_monitoring, NA_real_)) |> 
  relocate(monitored, .after = station_id)

sim_factual_monitoring

# A tibble: 1,763 × 4
   station_id monitored cheating_party_monitoring cheating_party_no_monitoring
        <int>     <int>                     <dbl>                        <dbl>
 1          1         0                     NA                            50.2
 2          2         0                     NA                            58.3
 3          3         0                     NA                            59.6
 4          4         0                     NA                            61.2
 5          5         1                     19.4                          NA  
 6          6         0                     NA                            63.5
 7          7         1                     21.3                          NA  
 8          8         1                      8.19                         NA  
 9          9         0                     NA                            68.9
10         10         0                     NA                            78.1
# ℹ 1,753 more rows

So, how do we work out whether election monitors deter or prevent election-day fraud?

Average causal effects

We need to find good approximations of the counter-factuals for each polling station. To do this, we need to move away from focusing on the individual polling stations and, instead, look at the average vote share across all stations that were monitored compared to that across all stations that were not monitored.

Let’s look back at our impossible parallel worlds:

sim_election_monitoring

# A tibble: 1,763 × 3
   station_id cheating_party_monitoring cheating_party_no_monitoring
        <int>                     <dbl>                        <dbl>
 1          1                     14.8                          50.2
 2          2                     19.1                          58.3
 3          3                     20.8                          59.6
 4          4                     10.0                          61.2
 5          5                     19.4                          82.1
 6          6                     25.9                          63.5
 7          7                     21.3                          68.0
 8          8                      8.19                         68.3
 9          9                     36.5                          68.9
10         10                      2.54                         78.1
# ℹ 1,753 more rows
…
Don’t take my word for it

To illustrate this point, let’s briefly step away from the 2003 Armenian election. Say I have a group of 1,000 different people. All I know or care about them is their height.

Let’s create this group of 1,000 people:

sim_heights <- tibble(
  id = 1:1000,
  height = rnorm(1000, 170, 6)
)

sim_heights

# A tibble: 1,000 × 2
      id height
   <int>  <dbl>
 1     1   166.
 2     2   168.
 3     3   169.
 4     4   172.
 5     5   169.
 6     6   171.
 7     7   166.
 8     8   170.
 9     9   168.
10    10   170.
# ℹ 990 more rows
…
Let’s split this group up entirely randomly:

assigned_heights <- sim_heights |> 
  rowwise() |> 
  mutate(assignment = rbinom(1, 1, 0.5))

assigned_heights

# A tibble: 1,000 × 3
# Rowwise: 
      id height assignment
   <int>  <dbl>      <int>
 1     1   166.          1
 2     2   168.          1
 3     3   169.          0
 4     4   172.          1
 5     5   169.          0
 6     6   171.          0
 7     7   166.          1
 8     8   170.          1
 9     9   168.          1
10    10   170.          0
# ℹ 990 more rows
…
In theory, if we did this an infinite number of times, those averages would be identical.

Remember, our goal is to create two groups of polling stations that are, on average, identical prior to the treatment. We can do this by randomly assigning each station to be monitored or not.

This allows us to treat the cheating party’s average vote share across all monitored stations as indicative of its vote share across all stations if they were all monitored. Similarly, we can treat the cheating party’s average vote share across all non-monitored stations as indicative of its vote share across all stations if none were monitored. The difference between these two average vote shares is our average treatment effect. In other words, the difference between the average vote share across monitored stations and that across non-monitored stations represents the effect of international monitoring on election-day fraud. This method is call the difference-of-means test.

Let’s look at our observed data set:

sim_factual_monitoring

# A tibble: 1,763 × 4
   station_id monitored cheating_party_monitoring cheating_party_no_monitoring
        <int>     <int>                     <dbl>                        <dbl>
 1          1         0                     NA                            50.2
 2          2         0                     NA                            58.3
 3          3         0                     NA                            59.6
 4          4         0                     NA                            61.2
 5          5         1                     19.4                          NA  
 6          6         0                     NA                            63.5
 7          7         1                     21.3                          NA  
 8          8         1                      8.19                         NA  
 9          9         0                     NA                            68.9
10         10         0                     NA                            78.1
# ℹ 1,753 more rows
…
vec_in_city <- rbinom(1763, 1, 0.3)

sim_observed_data <- tibble(station_id = 1:1763,
       in_city = vec_in_city) |> 
  rowwise() |> 
  mutate(monitored = if_else(in_city == 1, rbinom(1, 1, 0.6), rbinom(1, 1, 0.2)), 
         cheating_party_vote_share = case_when(in_city == 0 & monitored == 1 ~ rbeta(1, 2, 11),
                                               in_city == 1 & monitored == 1 ~ rbeta(1, 4, 4),
                                               in_city == 0 & monitored == 0 ~ rbeta(1, 2, 4),
                                               in_city == 1 & monitored == 0 ~ rbeta(1, 6, 4)))

sim_observed_data

# A tibble: 1,763 × 4
# Rowwise: 
   station_id in_city monitored cheating_party_vote_share
        <int>   <int>     <int>                     <dbl>
 1          1       0         0                     0.367
 2          2       0         0                     0.397
 3          3       1         0                     0.422
 4          4       1         1                     0.639
 5          5       0         0                     0.643
 6          6       0         0                     0.269
 7          7       0         0                     0.360
 8          8       1         1                     0.578
 9          9       1         1                     0.837
10         10       1         1                     0.770
# ℹ 1,753 more rows
…
