Relationships Between Two Variables – GVPT622
…
gapminder_df

# A tibble: 217 × 8
   iso2c iso3c country         region  date gdp_per_cap life_exp log_gdp_per_cap
   <chr> <chr> <chr>           <chr>  <dbl>       <dbl>    <dbl>           <dbl>
 1 AW    ABW   Aruba           Latin…  2016      27442.     75.5           10.2 
 2 AF    AFG   Afghanistan     South…  2016        522.     62.6            6.26
 3 AO    AGO   Angola          Sub-S…  2016       1808.     61.6            7.50
 4 AL    ALB   Albania         Europ…  2016       4168.     78.6            8.34
 5 AD    AND   Andorra         Europ…  2016      40130.     84.5           10.6 
 6 AE    ARE   United Arab Em… Middl…  2016      41326.     82.2           10.6 
 7 AR    ARG   Argentina       Latin…  2016      12700.     76.1            9.45
 8 AM    ARM   Armenia         Europ…  2016       3524.     74.9            8.17
 9 AS    ASM   American Samoa  East …  2016      12843.     72.6            9.46
10 AG    ATG   Antigua and Ba… Latin…  2016      16557.     77.0            9.71
# ℹ 207 more rows
…
Also, there are several countries with a wide range of logged GDP per capita that have an average life expectancy of 77 years (those sitting at or around the horizontal black line). These have a wide range of logged GDP per capita: some are further to the left than others.

Our model is our best attempt at accounting for that diversity whilst still producing a useful summary of the relationship between health and wealth for those countries and all other countries with all observed values of GDP per capita.

A bit of noise (error) is expected. How much error is okay? This is a complicated question that has contested answers. Let’s start with actually measuring that error. Then we can chat about whether or not it’s small enough to allow us to be confident in our model.

Measuring error in our model

Returning to our question above, how close are our predicted values to our observed values? For example, how far from the observed average life expectancy of countries with a GDP per capita of or close to $20,000 is 77 years?

Start by working out the average life expectancy predicted by our model for the logged GDP per capita of all of our countries. We can then compare this to the average life expectancy actually observed in all these countries. We can predict values from a model using broom::augment():

augment(m)

# A tibble: 210 × 9
   .rownames life_exp log_gdp_per_cap .fitted .resid    .hat .sigma   .cooksd
   <chr>        <dbl>           <dbl>   <dbl>  <dbl>   <dbl>  <dbl>     <dbl>
 1 1             75.5           10.2     78.9 -3.32  0.00914   4.11 0.00305  
 2 2             62.6            6.26    60.9  1.79  0.0190    4.11 0.00187  
 3 3             61.6            7.50    66.5 -4.88  0.00849   4.10 0.00611  
 4 4             78.6            8.34    70.3  8.34  0.00525   4.07 0.0109   
 5 5             84.5           10.6     80.6  3.90  0.0118    4.11 0.00545  
 6 6             82.2           10.6     80.7  1.47  0.0120    4.11 0.000793 
 7 7             76.1            9.45    75.4  0.744 0.00567   4.12 0.0000940
 8 8             74.9            8.17    69.5  5.33  0.00565   4.10 0.00482  
 9 9             72.6            9.46    75.4 -2.77  0.00570   4.11 0.00131  
10 10            77.0            9.71    76.6  0.401 0.00657   4.12 0.0000318
# ℹ 200 more rows
# ℹ 1 more variable: .std.resid <dbl>

This function is simply fitting our model (\(life Exp_x = 32.9 + 4.5 * logGdpPerCap_x\)) to each country’s logged GDP per capita. You can confirm this by running the model yourself:

gapminder_df |> 
  transmute(
    country,
    log_gdp_per_cap,
    .fitted = beta_0 + beta_1*log_gdp_per_cap
  )

# A tibble: 217 × 3
   country              log_gdp_per_cap .fitted
   <chr>                          <dbl>   <dbl>
 1 Aruba                          10.2     78.9
 2 Afghanistan                     6.26    60.9
 3 Angola                          7.50    66.5
 4 Albania                         8.34    70.3
 5 Andorra                        10.6     80.6
 6 United Arab Emirates           10.6     80.7
 7 Argentina                       9.45    75.4
 8 Armenia                         8.17    69.5
 9 American Samoa                  9.46    75.4
10 Antigua and Barbuda             9.71    76.6
# ℹ 207 more rows

How did the model do? What is the difference between what it predicted and the country’s observed average life expectancy? Compare .fitted (the predicted average life expectancy) to life_exp (the actual observed average life expectancy).

m_eval <- augment(m) |> 
  transmute(
    life_exp, 
    .fitted,
    diff = life_exp - .fitted
  )

m_eval

# A tibble: 210 × 3
   life_exp .fitted   diff
      <dbl>   <dbl>  <dbl>
 1     75.5    78.9 -3.32 
 2     62.6    60.9  1.79 
 3     61.6    66.5 -4.88 
 4     78.6    70.3  8.34 
 5     84.5    80.6  3.90 
 6     82.2    80.7  1.47 
 7     76.1    75.4  0.744
 8     74.9    69.5  5.33 
 9     72.6    75.4 -2.77 
10     77.0    76.6  0.401
# ℹ 200 more rows

Note that broom::augment() already did this calculation and stored it in the .resid variable. The formal term for the difference between the predicted and observed values is the residual.

augment(m) |> 
  select(life_exp, .fitted, .resid)

# A tibble: 210 × 3
   life_exp .fitted .resid
      <dbl>   <dbl>  <dbl>
 1     75.5    78.9 -3.32 
 2     62.6    60.9  1.79 
 3     61.6    66.5 -4.88 
 4     78.6    70.3  8.34 
 5     84.5    80.6  3.90 
 6     82.2    80.7  1.47 
 7     76.1    75.4  0.744
 8     74.9    69.5  5.33 
 9     72.6    75.4 -2.77 
10     77.0    76.6  0.401
# ℹ 200 more rows
…
