GVPT622 - Research Design
…
unsc_res |> 
  html_element("table.table-striped.table-sm")

{html_node}
<table class="table table-striped table-sm">
[1] <tbody>\n<tr>\n<td><a href="http://undocs.org/en/S/RES/2721(2023)">S/RES/ ...

We have filtered the whole HTML document to only the table we want to select. We don’t want to work with this table in HTML. Let’s convert it into a data frame. We can use the very helpful httr2::html_table() function to extract this tabular data and convert it:

unsc_res |> 
  html_element("table.table-striped.table-sm") |> 
  html_table()

# A tibble: 50 × 3
   X1                X2               X3                                        
   <chr>             <chr>            <chr>                                     
 1 S/RES/2721 (2023) 29 December 2023 The situation in Afghanistan              
 2 S/RES/2720 (2023) 22 December 2023 The situation in the Middle East, includi…
 3 S/RES/2719 (2023) 21 December 2023 Cooperation between the United Nations an…
 4 S/RES/2718 (2023) 21 December 2023 The situation in the Middle East (UNDOF)  
 5 S/RES/2717 (2023) 19 December 2023 The situation concerning the Democratic R…
 6 S/RES/2716 (2023) 14 December 2023 Threats to to international peace and sec…
 7 S/RES/2715 (2023) 1 December 2023  Reports of the Secretary-General on the S…
 8 S/RES/2714 (2023) 1 December 2023  The situation in Somalia                  
 9 S/RES/2713 (2023) 1 December 2023  Peace and Security in Africa              
10 S/RES/2712 (2023) 15 November 2023 The situation in the Middle East, includi…
# ℹ 40 more rows

Awesome! We now have a table of all of the resolutions passed by the UNSC this year. Let’s clean it up a bit:

unsc_res_df <- unsc_res |> 
  html_element("table.table-striped.table-sm") |> 
  html_table() |> 
  rename(id = X1,
         date_adoped = X2,
         title = X3)

unsc_res_df

# A tibble: 50 × 3
   id                date_adoped      title                                     
   <chr>             <chr>            <chr>                                     
 1 S/RES/2721 (2023) 29 December 2023 The situation in Afghanistan              
 2 S/RES/2720 (2023) 22 December 2023 The situation in the Middle East, includi…
 3 S/RES/2719 (2023) 21 December 2023 Cooperation between the United Nations an…
 4 S/RES/2718 (2023) 21 December 2023 The situation in the Middle East (UNDOF)  
 5 S/RES/2717 (2023) 19 December 2023 The situation concerning the Democratic R…
 6 S/RES/2716 (2023) 14 December 2023 Threats to to international peace and sec…
 7 S/RES/2715 (2023) 1 December 2023  Reports of the Secretary-General on the S…
 8 S/RES/2714 (2023) 1 December 2023  The situation in Somalia                  
 9 S/RES/2713 (2023) 1 December 2023  Peace and Security in Africa              
10 S/RES/2712 (2023) 15 November 2023 The situation in the Middle East, includi…
# ℹ 40 more rows
…
