Applications & Review – GVPT622
…
Appel and Loyle (2012) (two wonderful UMD GVPT alumni) wanted to know more about why some states that are emerging from conflict set up post-conflict justice (PCJ) institutions. These institutions include courts that prosecute crimes committed during conflict, truth and reconciliation commissions, and other accountability procedures. They argue that leaders of post-conflict states, desperate for injections of foreign capital into their beleaguered economies, will set these up - in part - to send a costly and credible signal to foreign investors that these new leaders are committed to political stability and successful reconstruction.

Today, we are going to use the tools you have learnt so far in this course to explore the empirics sitting behind their published research.

The data

We will use their data. You can access it through the ebj data set in the polisciols R package:

tibble(ebj)

# A tibble: 95 × 19
      id ccode country_name      pcj      net_fdi_inflows gdp_per_capita     gdp
   <dbl> <dbl> <chr>             <fct>              <dbl>          <dbl>   <dbl>
 1    71    41 Haiti             No inst…           -9.80          1182. 8.41e 9
 2    71    41 Haiti             No inst…            6.60          1089. 8.06e 9
 3   154    52 Trinidad & Tobago No inst…          510.            7743. 9.54e 9
 4   102    70 Mexico            No inst…         -341.            6895. 6.28e11
 5   102    70 Mexico            No inst…         6461.            7780. 7.31e11
 6    67    90 Guatemala         PCJ ins…          431.            3062. 3.13e10
 7   141    92 El Salvador       No inst…           -7             2093. 9.76e 9
 8   141    92 El Salvador       PCJ ins…          264.            3045. 1.67e10
 9   116    93 Nicaragua         No inst…            2.70          1302. 4.24e 9
10   116    93 Nicaragua         PCJ ins…          337.            1350. 5.59e 9
# ℹ 85 more rows
# ℹ 12 more variables: gdp_per_capita_growth <dbl>, ex_rate_fluc <dbl>,
#   cap_account_openness <dbl>, labor <dbl>, f_life_exp <dbl>, polity2 <dbl>,
#   pol_constraints <dbl>, conflict_duration <dbl>, damage <dbl>,
#   peace_agreement <fct>, victory <fct>, cold_war <fct>
…
