GVPT622 - Probability Theory
…
Will it rain tomorrow? To answer this question, you may want to gather information about rain trends over time.

You may look at the number of times it rained this month last year. Say this is the record of rain days this month last year:

month_rain <- tibble(
  day_of_month = 1:30,
  rain = c(0, 1, 1, 1, 0, 0, 0, 1, 1, 0, 
           0, 0, 0, 0, 0, 0, 0, 0, 1, 1,
           0, 0, 0, 0, 0, 0, 0, 0, 0, 0)
)

month_rain

# A tibble: 30 × 2
   day_of_month  rain
          <int> <dbl>
 1            1     0
 2            2     1
 3            3     1
 4            4     1
 5            5     0
 6            6     0
 7            7     0
 8            8     1
 9            9     1
10           10     0
# ℹ 20 more rows
…
