GVPT622 - Statistical Inference
…
coin_flip <- function(possible_outcomes, n) {
  
  outcomes <- sample(possible_outcomes, size = n, replace = T, prob = c(0.5, 0.5))
  
  return(table(outcomes)["HEADS"])
  
}

results <- tibble(trial = 1:100000) |> 
  rowwise() |> 
  mutate(n_heads = coin_flip(possible_outcomes, 100))

results

# A tibble: 100,000 × 2
# Rowwise: 
   trial n_heads
   <int>   <int>
 1     1      52
 2     2      52
 3     3      48
 4     4      60
 5     5      61
 6     6      49
 7     7      52
 8     8      50
 9     9      49
10    10      45
# ℹ 99,990 more rows
…
  slice_sample(df, n = n) |> 
    tabyl(dem) |> 
    filter(dem == 1) |> 
    pull(percent)
  
}

nes_samples_1000 <- tibble(survey = 1:1000) |> 
  rowwise() |> 
  mutate(prop_dem = dem_survey(select(nes, caseid, dem), 3000)) |> 
  ungroup()

nes_samples_1000

# A tibble: 1,000 × 2
   survey prop_dem
    <int>    <dbl>
 1      1    0.395
 2      2    0.400
 3      3    0.396
 4      4    0.386
 5      5    0.394
 6      6    0.404
 7      7    0.396
 8      8    0.405
 9      9    0.399
10     10    0.404
# ℹ 990 more rows
…
