GVPT622 - Hypothesis Testing II
…
Do richer countries win more medals in the summer Olympics than poorer countries, on average? To answer this question, we need the following data:

Number of medals countries have won in the summer Olympics,

Countries’ GDP for those corresponding years,

Some threshold by which we will determine whether a country has a high income or not.

Let’s collect those data. To start, we can get data on all athletes who have competed in the Olympics from 1896 to 2016.

olympics_df <- read_csv("https://raw.githubusercontent.com/cosmoduende/r-olympic-games/main/datasets/athleteEvents.csv")
olympics_df

# A tibble: 271,116 × 15
      ID Name     Sex     Age Height Weight Team  NOC   Games  Year Season City 
   <dbl> <chr>    <chr> <dbl>  <dbl>  <dbl> <chr> <chr> <chr> <dbl> <chr>  <chr>
 1     1 A Dijia… M        24    180     80 China CHN   1992…  1992 Summer Barc…
 2     2 A Lamusi M        23    170     60 China CHN   2012…  2012 Summer Lond…
 3     3 Gunnar … M        24     NA     NA Denm… DEN   1920…  1920 Summer Antw…
 4     4 Edgar L… M        34     NA     NA Denm… DEN   1900…  1900 Summer Paris
 5     5 Christi… F        21    185     82 Neth… NED   1988…  1988 Winter Calg…
 6     5 Christi… F        21    185     82 Neth… NED   1988…  1988 Winter Calg…
 7     5 Christi… F        25    185     82 Neth… NED   1992…  1992 Winter Albe…
 8     5 Christi… F        25    185     82 Neth… NED   1992…  1992 Winter Albe…
 9     5 Christi… F        27    185     82 Neth… NED   1994…  1994 Winter Lill…
10     5 Christi… F        27    185     82 Neth… NED   1994…  1994 Winter Lill…
# ℹ 271,106 more rows
# ℹ 3 more variables: Sport <chr>, Event <chr>, Medal <chr>
Let’s clean that up a bit:

olympic_medals_df <- olympics_df |> 
  # Only look at the most recent year (2016)
  slice_max(Year) |> 
  # Include more general country code
  mutate(iso3c = countrycode(Team, "country.name", "iso3c")) |> 
  # Filter out individuals who didn't win a medal
  drop_na(Medal) |> 
  # Count the number of medals won by each country (team) that year
  count(iso3c, name = "medals_won")

olympic_medals_df

# A tibble: 85 × 2
   iso3c medals_won
   <chr>      <int>
 1 ARE            1
 2 ARG           22
 3 ARM            4
 4 AUS           82
 5 AUT            2
 6 AZE           18
 7 BDI            1
 8 BEL           21
 9 BGR            7
10 BHR            2
# ℹ 75 more rows
…
Now we need data on each country’s GDP that year:

gdp_df <- wb_data("NY.GDP.MKTP.CD", start_date = 2016, end_date = 2016, return_wide = F) |>
  select(iso3c, gdp = value)

gdp_df

# A tibble: 217 × 2
   iso3c           gdp
   <chr>         <dbl>
 1 AFG    18116572395.
 2 ALB    11861199831.
 3 DZA   180763839522.
 4 ASM      671000000 
 5 AND     2896610480.
 6 AGO    52761617226.
 7 ATG     1489692593.
 8 ARG   557532320663.
 9 ARM    10546136236.
10 ABW     2983635196.
# ℹ 207 more rows
…
gdp_df <- gdp_df |> 
  mutate(income_level = if_else(gdp < gdp_75th, "Medium or low", "High"),
         income_level = factor(income_level, ordered = T, levels = c("Medium or low", "High")))

Let’s join these together to get our full data set:

medals_gdp_df <- olympic_medals_df |> 
  left_join(gdp_df, by = "iso3c") |> 
  drop_na(income_level)

medals_gdp_df

# A tibble: 81 × 4
   iso3c medals_won     gdp income_level 
   <chr>      <int>   <dbl> <ord>        
 1 ARE            1 3.69e11 High         
 2 ARG           22 5.58e11 High         
 3 ARM            4 1.05e10 Medium or low
 4 AUS           82 1.21e12 High         
 5 AUT            2 3.96e11 High         
 6 AZE           18 3.79e10 Medium or low
 7 BDI            1 2.64e 9 Medium or low
 8 BEL           21 4.76e11 High         
 9 BGR            7 5.40e10 Medium or low
10 BHR            2 3.23e10 Medium or low
# ℹ 71 more rows
…
income_null <- medals_gdp_df |>  
  # Set up our DV and IV
  specify(medals_won ~ income_level) |>  
  # Define our null hypothesis
  hypothesize(null = "independence") |>
  # Generate 5000 simulated samples from that null world using permutation
  generate(reps = 5000, type = "permute")

income_null

Response: medals_won (numeric)
Explanatory: income_level (factor)
Null Hypothesis: independence
# A tibble: 405,000 × 3
# Groups:   replicate [5,000]
   medals_won income_level  replicate
        <dbl> <fct>             <int>
 1          8 High                  1
 2          2 High                  1
 3         41 Medium or low         1
 4          7 High                  1
 5          2 High                  1
 6          4 Medium or low         1
 7        113 Medium or low         1
 8         82 High                  1
 9          4 Medium or low         1
10         69 Medium or low         1
# ℹ 404,990 more rows
…
