Hypothesis Testing III – GVPT622
…
A simulation approach

Like last week, it can sometimes be helpful to see these tests in action. Let’s simulate our null world and compare it to our observation.

natpark_null <- gss |> 
  specify(natpark ~ partyid_3) |> 
  hypothesize(null = "independence") |> 
  generate(reps = 5000, type = "permute")

natpark_null

Response: natpark (factor)
Explanatory: partyid_3 (factor)
Null Hypothesis: independence
# A tibble: 9,280,000 × 3
# Groups:   replicate [5,000]
   natpark     partyid_3 replicate
   <fct>       <fct>         <int>
 1 Too little  Ind               1
 2 About right Ind               1
 3 About right Ind               1
 4 Too little  Rep               1
 5 About right Dem               1
 6 About right Dem               1
 7 About right Ind               1
 8 About right Ind               1
 9 Too much    Ind               1
10 About right Dem               1
# ℹ 9,279,990 more rows

We have simulated drawing 5,000 different samples from our null world in which there is no meaningful difference between parties. We created this null world by randomly assigning each respondent with a party identification. If we live in a world in which there is no meaningful effect of party identification on support for current funding levels, respondents’ party identification can be shuffled randomly!

These simulated counts represent our expected counts. Therefore, we can calculate the chi-squared statistic of the difference between what we actually observed and these expected counts as we did above. This time, we can use infer::calculate().

chi_sq_sim <- calculate(natpark_null, stat = "Chisq")
chi_sq_sim

Response: natpark (factor)
Explanatory: partyid_3 (factor)
Null Hypothesis: independence
# A tibble: 5,000 × 2
   replicate  stat
       <int> <dbl>
 1         1 4.82 
 2         2 5.61 
 3         3 7.85 
 4         4 5.71 
 5         5 7.49 
 6         6 3.28 
 7         7 5.22 
 8         8 1.93 
 9         9 4.04 
10        10 0.957
# ℹ 4,990 more rows
…
