GVPT622 - Applications & Midterm Exam Review II
…
Today, we are going to revise what we have learnt about hypothesis testing by working through some relevant examples.

A single mean

We know that militarized conflict between states is a very rare event: most country pairings are at peace most of the time. Was the average number of militarized interstate disputes (MIDs) fought between states in 2014 different from 0.0036?

mid_df <- create_dyadyears(directed = F, subset_years = 2014) |> 
  add_cow_mids() |> 
  select(year, ccode1, ccode2, cowmidongoing)

mid_df |> 
  filter(cowmidongoing == 1)

# A tibble: 55 × 4
    year ccode1 ccode2 cowmidongoing
   <dbl>  <dbl>  <dbl>         <dbl>
 1  2014      2    365             1
 2  2014      2    652             1
 3  2014      2    700             1
 4  2014      2    710             1
 5  2014      2    731             1
 6  2014      2    770             1
 7  2014     20    365             1
 8  2014    200    230             1
 9  2014    200    365             1
10  2014    210    365             1
# ℹ 45 more rows
…
If the null hypothesis were true, we would observe an average number of MIDs of 0.003 in 3.85% of an infinite number of samples from that null world. Therefore, we can reject the null hypothesis that the average number of MIDs between states in 2014 was 0.0036 with a one-tailed test at the 5% threshold.

A single proportion

Are the majority of states in the world democracies?

dem_df <- ccode_democracy |> 
  drop_na(polity2) |> 
  slice_max(year) |> 
  transmute(ccode, democracy = if_else(polity2 > 5, 1, 0))

dem_df

# A tibble: 166 × 2
   ccode democracy
   <dbl>     <dbl>
 1     2         1
 2    20         1
 3    40         0
 4    41         0
 5    42         1
 6    51         1
 7    52         1
 8    70         1
 9    90         1
10    91         0
# ℹ 156 more rows
…
Is the proportion of democratic dyads with defense alliances greater than that of non-democratic dyads?

alliance_df <- create_dyadyears(directed = F, subset_years = 2010) |> 
  add_cow_alliance() |> 
  add_democracy() |> 
  transmute(ccode1, 
            ccode2, 
            cow_defense, 
            dem_dyad = if_else(polity21 > 5 & polity22 > 5, 1, 0)) |> 
  drop_na(cow_defense, dem_dyad)

alliance_df

# A tibble: 15,496 × 4
   ccode1 ccode2 cow_defense dem_dyad
    <dbl>  <dbl>       <dbl>    <dbl>
 1      2     20           1        1
 2      2     40           0        0
 3      2     41           1        0
 4      2     42           1        1
 5      2     51           1        1
 6      2     52           1        1
 7      2     70           1        1
 8      2     90           1        1
 9      2     91           1        1
10      2     92           1        1
# ℹ 15,486 more rows
…
