GVPT622 - Regression
…
Let’s explore the relationship between disposal efficiency and Dream Team points. Your disposal efficiency describes the percentage of your disposals (kicks, handballs, etc.) that lead to a positive outcome for your team. The Dream Team is a popular fantasy football competition. Each player gets points for various actions they take on the field. For example, you get six Dream Team points for scoring a goal and you lose three points for having a free kick awarded against you. This is a useful proxy measure of a player’s effectiveness on the field.

Loading in our data

We are going to explore some different player-level outcomes from the tenth round of the most recent AFLW season. This is the last round played before finals. First, we need to collect our data. The fitzRoy::fetch_player_stats() retrieves some useful variables about each player from the official AFL website.

afl_df <- fetch_player_stats(2023, round = 10, comp = "AFLW")
afl_df

# A tibble: 378 × 70
   providerId      utcStartTime           status compSeason.shortName round.name
   <chr>           <chr>                  <chr>  <chr>                <chr>     
 1 CD_M20232641001 2023-11-03T08:45:00.0… CONCL… 2023 NAB AFLW Season Round 10  
 2 CD_M20232641001 2023-11-03T08:45:00.0… CONCL… 2023 NAB AFLW Season Round 10  
 3 CD_M20232641001 2023-11-03T08:45:00.0… CONCL… 2023 NAB AFLW Season Round 10  
 4 CD_M20232641001 2023-11-03T08:45:00.0… CONCL… 2023 NAB AFLW Season Round 10  
 5 CD_M20232641001 2023-11-03T08:45:00.0… CONCL… 2023 NAB AFLW Season Round 10  
 6 CD_M20232641001 2023-11-03T08:45:00.0… CONCL… 2023 NAB AFLW Season Round 10  
 7 CD_M20232641001 2023-11-03T08:45:00.0… CONCL… 2023 NAB AFLW Season Round 10  
 8 CD_M20232641001 2023-11-03T08:45:00.0… CONCL… 2023 NAB AFLW Season Round 10  
 9 CD_M20232641001 2023-11-03T08:45:00.0… CONCL… 2023 NAB AFLW Season Round 10  
10 CD_M20232641001 2023-11-03T08:45:00.0… CONCL… 2023 NAB AFLW Season Round 10  
# ℹ 368 more rows
# ℹ 65 more variables: round.roundNumber <int>, venue.name <chr>,
#   home.team.name <chr>, home.team.club.name <chr>, away.team.name <chr>,
#   away.team.club.name <chr>, player.jumperNumber <int>,
#   player.photoURL <chr>, player.player.position <chr>,
#   player.player.player.playerId <chr>, player.player.player.captain <lgl>,
#   player.player.player.playerJumperNumber <int>, …
…
This is also often the case in political science. For example, we have full information on the number of wars fought between countries in the modern era. We also have a lot of data on those countries. We do not; therefore, need to take a sample from that population (unlike pollsters attempting to work out a politician’s level of support from all US voters).

However, this does not mean that we know with certainty the relationship between our variables of interest. Just as with sport, there is so much randomness that can effect these outcomes. We want to capture and account for that randomness. So, we have to treat these data as samples.

Let’s take a completely random sample of 250 players from our data and fit our regression against that sample:

afl_sample_1 <- afl_df |> 
  sample_n(250) |>
  select(player.player.player.givenName, 
         player.player.player.surname,
         dreamTeamPoints,
         disposalEfficiency)
afl_sample_1

# A tibble: 250 × 4
   player.player.player.givenName player.player.player.surname dreamTeamPoints
   <chr>                          <chr>                                  <dbl>
 1 Simone                         Nalder                                    21
 2 Emelia                         Yassir                                    20
 3 Ashleigh                       Saint                                     76
 4 Chloe                          Dalton                                    44
 5 Renee                          Garing                                    92
 6 Ebony                          O'Dea                                     47
 7 Jasmin                         Stewart                                   43
 8 Sophie                         Conway                                    68
 9 Hannah                         Ewings                                    22
10 Courtney                       Jones                                     43
# ℹ 240 more rows
# ℹ 1 more variable: disposalEfficiency <dbl>
…
Okay, so we got a different intercept and coefficient estimates than we got above. This is despite the fact that I took a pure random sample from the full set of players. The only thing driving this difference is random chance.

Let’s do this again. I will take a different random sample of players and fit a regression for them:

afl_sample_2 <- afl_df |> 
  sample_n(250) |>
  select(player.player.player.givenName, 
         player.player.player.surname,
         dreamTeamPoints,
         disposalEfficiency)
afl_sample_2

# A tibble: 250 × 4
   player.player.player.givenName player.player.player.surname dreamTeamPoints
   <chr>                          <chr>                                  <dbl>
 1 Kodi                           Jacques                                   50
 2 Dana                           East                                      64
 3 Cambridge                      McCormick                                 48
 4 Rachelle                       Martin                                    74
 5 Madison                        Newman                                    94
 6 Courtney                       Jones                                     43
 7 Mackenzie                      Webb                                      30
 8 Jessica                        Low                                       36
 9 Erin                           Phillips                                  76
10 Justine                        Mules                                     35
# ℹ 240 more rows
# ℹ 1 more variable: disposalEfficiency <dbl>
…
Again, we got a different set of coefficients. This is only the result of random chance.

Let’s go again:

afl_sample_3 <- afl_df |> 
  sample_n(250) |>
  select(player.player.player.givenName, 
         player.player.player.surname,
         dreamTeamPoints,
         disposalEfficiency)
afl_sample_3

# A tibble: 250 × 4
   player.player.player.givenName player.player.player.surname dreamTeamPoints
   <chr>                          <chr>                                  <dbl>
 1 Taylor                         Smith                                     47
 2 Alice                          O'Loughlin                                46
 3 Zarlie                         Goldsworthy                              103
 4 Chelsea                        Biddell                                   58
 5 Courtney                       Hodder                                    92
 6 Mim                            Strom                                     75
 7 Jade                           Ellenger                                  92
 8 Zoe                            Wakfer                                    32
 9 Isabel                         Huntington                                37
10 Brooke                         Brown                                     58
# ℹ 240 more rows
# ℹ 1 more variable: disposalEfficiency <dbl>
…
  model_results <- tibble(round = i, model = tidy(m))
  
  return(model_results)
  
}

afl_regressions <- map(1:1000, afl_sample_regression, .progress = T) |> 
  bind_rows()

Now we can take a look at those different regression coefficients:

afl_regressions |> 
  unnest(model)

# A tibble: 2,000 × 6
   round term               estimate std.error statistic  p.value
   <int> <chr>                 <dbl>     <dbl>     <dbl>    <dbl>
 1     1 (Intercept)         39.1       5.25       7.45  1.51e-12
 2     1 disposalEfficiency   0.172     0.0811     2.12  3.54e- 2
 3     2 (Intercept)         45.6       5.74       7.94  6.85e-14
 4     2 disposalEfficiency   0.0719    0.0871     0.826 4.10e- 1
 5     3 (Intercept)         43.9       5.90       7.44  1.68e-12
 6     3 disposalEfficiency   0.110     0.0912     1.21  2.28e- 1
 7     4 (Intercept)         37.8       5.35       7.08  1.51e-11
 8     4 disposalEfficiency   0.190     0.0829     2.29  2.29e- 2
 9     5 (Intercept)         42.2       5.69       7.43  1.80e-12
10     5 disposalEfficiency   0.140     0.0884     1.58  1.16e- 1
# ℹ 1,990 more rows
…
