Multiple Regression – GVPT622
…
First, we can gather our data from the World Bank Data Center:

health_df <- wb_data(
  indicator = c("SP.DYN.LE00.IN", "SH.XPD.CHEX.GD.ZS"),
  start_date = 2016,
  end_date = 2016
) |> 
  rename(
    life_exp = SP.DYN.LE00.IN,
    health_expend = SH.XPD.CHEX.GD.ZS
  ) 

health_df

# A tibble: 217 × 6
   iso2c iso3c country               date health_expend life_exp
   <chr> <chr> <chr>                <dbl>         <dbl>    <dbl>
 1 AW    ABW   Aruba                 2016         NA        75.5
 2 AF    AFG   Afghanistan           2016         11.8      62.6
 3 AO    AGO   Angola                2016          2.71     61.6
 4 AL    ALB   Albania               2016          6.73     78.6
 5 AD    AND   Andorra               2016          6.91     84.5
 6 AE    ARE   United Arab Emirates  2016          3.90     82.2
 7 AR    ARG   Argentina             2016          9.86     76.1
 8 AM    ARM   Armenia               2016          9.95     74.9
 9 AS    ASM   American Samoa        2016         NA        72.6
10 AG    ATG   Antigua and Barbuda   2016          5.12     77.0
# ℹ 207 more rows
…
Multiple linear regression model

We can easily incorporate additional independent variables into our linear regression model. First, we need to collect data on each country’s GDP per capita.

gdp_per_cap_df <- wb_data(
  indicator = "NY.GDP.PCAP.CD",
  start_date = 2016,
  end_date = 2016
) |> 
  transmute(iso3c, date, gdp_per_cap = NY.GDP.PCAP.CD, logged_gdp_per_cap = log(gdp_per_cap))

gdp_per_cap_df

# A tibble: 217 × 4
   iso3c  date gdp_per_cap logged_gdp_per_cap
   <chr> <dbl>       <dbl>              <dbl>
 1 ABW    2016      27442.              10.2 
 2 AFG    2016        522.               6.26
 3 AGO    2016       1808.               7.50
 4 ALB    2016       4168.               8.34
 5 AND    2016      40130.              10.6 
 6 ARE    2016      41326.              10.6 
 7 ARG    2016      12700.               9.45
 8 ARM    2016       3524.               8.17
 9 ASM    2016      12843.               9.46
10 ATG    2016      16557.               9.71
# ℹ 207 more rows

We can join those data to our previous dataset using dplyr::left_join():

health_gdp_df <- health_df |> 
  left_join(gdp_per_cap_df, by = c("iso3c", "date"))

health_gdp_df

# A tibble: 217 × 8
   iso2c iso3c country               date health_expend life_exp gdp_per_cap
   <chr> <chr> <chr>                <dbl>         <dbl>    <dbl>       <dbl>
 1 AW    ABW   Aruba                 2016         NA        75.5      27442.
 2 AF    AFG   Afghanistan           2016         11.8      62.6        522.
 3 AO    AGO   Angola                2016          2.71     61.6       1808.
 4 AL    ALB   Albania               2016          6.73     78.6       4168.
 5 AD    AND   Andorra               2016          6.91     84.5      40130.
 6 AE    ARE   United Arab Emirates  2016          3.90     82.2      41326.
 7 AR    ARG   Argentina             2016          9.86     76.1      12700.
 8 AM    ARM   Armenia               2016          9.95     74.9       3524.
 9 AS    ASM   American Samoa        2016         NA        72.6      12843.
10 AG    ATG   Antigua and Barbuda   2016          5.12     77.0      16557.
# ℹ 207 more rows
# ℹ 1 more variable: logged_gdp_per_cap <dbl>
…
