GVPT622 - Descriptive Statistics
…
library(tidyverse)
library(janitor)
library(skimr)
library(wbstats)
library(patchwork)

Describing categorical variables

Imagine that we have completed a survey of 10,000 individuals. We asked them their age and level of satisfaction with their job.

We store their responses in a data frame called survey_df. It has 100 observations (one for each respondent) and three variables: a unique id (id); their age in years (age); and their level of satisfaction (sat), which can take one of four values: very unsatisfied, unsatisfied, satisfied, and very satisfied.

survey_df

# A tibble: 10,000 × 3
      id   age sat             
   <int> <int> <chr>           
 1     1    53 Unsatisfied     
 2     2    24 Very unsatisfied
 3     3    65 Unsatisfied     
 4     4    45 Satisfied       
 5     5    60 Unsatisfied     
 6     6    51 Very satisfied  
 7     7    59 Very satisfied  
 8     8    38 Very satisfied  
 9     9    25 Unsatisfied     
10    10    46 Very satisfied  
# ℹ 9,990 more rows
…
Let’s step through this. We will first calculate the variance for wide_dist, or the top graph.

wide_var_calc <- wide_dist |> 
  mutate(
    mean = mean(wide_dist$z),
    diff = z - mean,
    diff_2 = diff^2
  )

wide_var_calc

# A tibble: 1,000,000 × 4
        z    mean   diff  diff_2
    <dbl>   <dbl>  <dbl>   <dbl>
 1  1.77  0.00160  1.77   3.13  
 2  0.481 0.00160  0.480  0.230 
 3  1.41  0.00160  1.41   1.98  
 4  0.719 0.00160  0.717  0.514 
 5 -2.35  0.00160 -2.35   5.51  
 6 -1.29  0.00160 -1.29   1.66  
 7 -3.71  0.00160 -3.71  13.8   
 8  3.17  0.00160  3.17  10.1   
 9 -1.86  0.00160 -1.86   3.46  
10 -0.299 0.00160 -0.301  0.0903
# ℹ 999,990 more rows
…
