GVPT622 - Bivariate Relationships
…
gapminder_df

# A tibble: 217 × 8
   iso2c iso3c country         region  date gdp_per_cap life_exp log_gdp_per_cap
   <chr> <chr> <chr>           <chr>  <dbl>       <dbl>    <dbl>           <dbl>
 1 AW    ABW   Aruba           Latin…  2016      28451.     75.6           10.3 
 2 AF    AFG   Afghanistan     South…  2016        520.     63.1            6.25
 3 AO    AGO   Angola          Sub-S…  2016       1710.     61.1            7.44
 4 AL    ALB   Albania         Europ…  2016       4124.     78.9            8.32
 5 AD    AND   Andorra         Europ…  2016      39932.     NA             10.6 
 6 AE    ARE   United Arab Em… Middl…  2016      41055.     79.3           10.6 
 7 AR    ARG   Argentina       Latin…  2016      12790.     76.3            9.46
 8 AM    ARM   Armenia         Europ…  2016       3680.     74.7            8.21
 9 AS    ASM   American Samoa  East …  2016      13301.     NA              9.50
10 AG    ATG   Antigua and Ba… Latin…  2016      15863.     78.2            9.67
# ℹ 207 more rows
…
# A tibble: 1 × 2
  log_gdp_per_cap .fitted
            <dbl>   <dbl>
1            9.21    74.6

We can do this across a number of different values for GDP per capita:

new_data <- tibble(
  gdp_per_cap = seq(from = 10000, to = 50000, by = 1000),
  log_gdp_per_cap = log(gdp_per_cap)
)

augment(m, newdata = new_data)

# A tibble: 41 × 3
   gdp_per_cap log_gdp_per_cap .fitted
         <dbl>           <dbl>   <dbl>
 1       10000            9.21    74.6
 2       11000            9.31    75.1
 3       12000            9.39    75.4
 4       13000            9.47    75.8
 5       14000            9.55    76.1
 6       15000            9.62    76.5
 7       16000            9.68    76.8
 8       17000            9.74    77.0
 9       18000            9.80    77.3
10       19000            9.85    77.5
# ℹ 31 more rows

We can also use this function to see how well our model predicts for our own data:

augment(m)

# A tibble: 198 × 9
   .rownames life_exp log_gdp_per_cap .fitted .resid    .hat .sigma   .cooksd
   <chr>        <dbl>           <dbl>   <dbl>  <dbl>   <dbl>  <dbl>     <dbl>
 1 1             75.6           10.3     79.4 -3.75  0.0106    4.03 0.00471  
 2 2             63.1            6.25    61.2  1.94  0.0193    4.03 0.00234  
 3 3             61.1            7.44    66.6 -5.50  0.00886   4.02 0.00844  
 4 4             78.9            8.32    70.6  8.26  0.00541   3.99 0.0115   
 5 6             79.3           10.6     81.0 -1.70  0.0136    4.03 0.00125  
 6 7             76.3            9.46    75.7  0.569 0.00633   4.04 0.0000641
 7 8             74.7            8.21    70.1  4.58  0.00566   4.02 0.00371  
 8 10            78.2            9.67    76.7  1.43  0.00719   4.03 0.000463 
 9 11            82.4           10.8     81.9  0.527 0.0154    4.04 0.000136 
10 12            81.6           10.7     81.5  0.156 0.0145    4.04 0.0000113
# ℹ 188 more rows
# ℹ 1 more variable: .std.resid <dbl>

Here, we have the predicted values for life expectancy for all of our countries in our sample. Compare .fitted (the predicted life expectancy) to life_exp (the actual observed average life expectancy).

m_eval <- augment(m) |> 
  transmute(
    life_exp, 
    .fitted,
    diff = life_exp - .fitted
  )

m_eval

# A tibble: 198 × 3
   life_exp .fitted   diff
      <dbl>   <dbl>  <dbl>
 1     75.6    79.4 -3.75 
 2     63.1    61.2  1.94 
 3     61.1    66.6 -5.50 
 4     78.9    70.6  8.26 
 5     79.3    81.0 -1.70 
 6     76.3    75.7  0.569
 7     74.7    70.1  4.58 
 8     78.2    76.7  1.43 
 9     82.4    81.9  0.527
10     81.6    81.5  0.156
# ℹ 188 more rows

Note that broom::augment() does this calculation and stores it in the .resid variable.

augment(m) |> 
  transmute(
    life_exp, 
    .fitted,
    diff = life_exp - .fitted,
    .resid
  )

# A tibble: 198 × 4
   life_exp .fitted   diff .resid
      <dbl>   <dbl>  <dbl>  <dbl>
 1     75.6    79.4 -3.75  -3.75 
 2     63.1    61.2  1.94   1.94 
 3     61.1    66.6 -5.50  -5.50 
 4     78.9    70.6  8.26   8.26 
 5     79.3    81.0 -1.70  -1.70 
 6     76.3    75.7  0.569  0.569
 7     74.7    70.1  4.58   4.58 
 8     78.2    76.7  1.43   1.43 
 9     82.4    81.9  0.527  0.527
10     81.6    81.5  0.156  0.156
# ℹ 188 more rows
…
